<?xml version="1.0" encoding="UTF-8" standalone="no"?>
<svg
   xmlns:dc="http://purl.org/dc/elements/1.1/"
   xmlns:cc="http://creativecommons.org/ns#"
   xmlns:rdf="http://www.w3.org/1999/02/22-rdf-syntax-ns#"
   xmlns:svg="http://www.w3.org/2000/svg"
   xmlns="http://www.w3.org/2000/svg"
   xmlns:sodipodi="http://sodipodi.sourceforge.net/DTD/sodipodi-0.dtd"
   xmlns:inkscape="http://www.inkscape.org/namespaces/inkscape"
   width="397.52759mm"
   height="7.6692801mm"
   viewBox="0 0 397.52759 7.6692805"
   version="1.1"
   id="svg8"
   inkscape:version="1.0.2 (e86c870879, 2021-01-15)"
   sodipodi:docname="rain-divider.svg">
  <defs
     id="defs2" />
  <sodipodi:namedview
     id="base"
     pagecolor="#ffffff"
     bordercolor="#666666"
     borderopacity="1.0"
     inkscape:pageopacity="0.0"
     inkscape:pageshadow="2"
     inkscape:zoom="0.15960702"
     inkscape:cx="1285.8564"
     inkscape:cy="-40.55657"
     inkscape:document-units="mm"
     inkscape:current-layer="layer1"
     inkscape:document-rotation="0"
     showgrid="false"
     inkscape:window-width="1366"
     inkscape:window-height="704"
     inkscape:window-x="0"
     inkscape:window-y="0"
     inkscape:window-maximized="1" />
  <metadata
     id="metadata5">
    <rdf:RDF>
      <cc:Work
         rdf:about="">
        <dc:format>image/svg+xml</dc:format>
        <dc:type
           rdf:resource="http://purl.org/dc/dcmitype/StillImage" />
        <dc:title></dc:title>
      </cc:Work>
    </rdf:RDF>
  </metadata>
  <g
     inkscape:label="Layer 1"
     inkscape:groupmode="layer"
     id="layer1"
     transform="translate(5891.5766,2531.5308)">
    <g
       id="g1559"
       transform="matrix(0.02825606,0,0,0.02825606,-5725.1039,-2535.7965)">
      <g
         id="g1417"
         transform="translate(18.266376,-2496.5918)">
        <g
           id="g1161"
           transform="matrix(0.73973342,0,0,0.73973342,-725.12946,-33.251499)">
          <path
             id="path1151"
             style="fill:#000000;fill-opacity:1;stroke:#000000;stroke-width:2.8;stroke-linecap:round;stroke-miterlimit:4;stroke-dasharray:none"
             d="m 118.53766,19.789238 c 24.63093,0 44.59824,19.96731 44.59824,44.59824 0,24.63093 -19.96731,44.598242 -44.59824,44.598242 -24.630932,0 -40.497312,-28.217912 -70.191372,-44.598242 28.53102,-15.97107 45.56044,-44.59824 70.191372,-44.59824 z"
             sodipodi:nodetypes="ssscs" />
          <path
             id="path1153"
             style="fill:#000000;fill-opacity:1;stroke:#000000;stroke-width:2.8;stroke-linecap:round;stroke-miterlimit:4;stroke-dasharray:none"
             d="m 118.53766,766.10625 c 24.63093,0 44.59824,19.96732 44.59824,44.59824 0,24.63093 -19.96731,44.59824 -44.59824,44.59824 -24.630931,10e-6 -40.497301,-28.21791 -70.191371,-44.59824 28.53103,-15.97107 45.56044,-44.59824 70.191371,-44.59824 z"
             sodipodi:nodetypes="ssscs" />
          <path
             id="path1155"
             style="fill:#000000;fill-opacity:1;stroke:#000000;stroke-width:2.8;stroke-linecap:round;stroke-miterlimit:4;stroke-dasharray:none"
             d="m 118.53766,579.52693 c 24.63093,0 44.59824,19.96732 44.59824,44.59825 0,24.63092 -19.96731,44.59824 -44.59824,44.59824 -24.630932,0 -40.497312,-28.21792 -70.191372,-44.59824 28.53102,-15.97108 45.56044,-44.59825 70.191372,-44.59825 z"
             sodipodi:nodetypes="ssscs" />
          <path
             id="path1157"
             style="fill:#000000;fill-opacity:1;stroke:#000000;stroke-width:2.8;stroke-linecap:round;stroke-miterlimit:4;stroke-dasharray:none"
             d="m 118.53766,392.94774 c 24.63093,0 44.59824,19.96731 44.59824,44.59824 0,24.63093 -19.96731,44.59824 -44.59824,44.59824 -24.630931,0 -40.497301,-28.21791 -70.191371,-44.59824 28.53103,-15.97107 45.56044,-44.59824 70.191371,-44.59824 z"
             sodipodi:nodetypes="ssscs" />
          <path
             id="path1159"
             style="fill:#000000;fill-opacity:1;stroke:#000000;stroke-width:2.8;stroke-linecap:round;stroke-miterlimit:4;stroke-dasharray:none"
             d="m 118.53766,206.36848 c 24.63093,0 44.59824,19.96732 44.59824,44.59825 0,24.63092 -19.96731,44.59824 -44.59824,44.59824 -24.630932,0 -40.497312,-28.21792 -70.191372,-44.59824 28.53102,-15.97108 45.56044,-44.59825 70.191372,-44.59825 z"
             sodipodi:nodetypes="ssscs" />
        </g>
        <g
           id="g1171"
           transform="matrix(0.73973342,0,0,0.73973342,-654.53254,-35.016303)">
          <path
             id="path1163"
             style="fill:#000000;fill-opacity:1;stroke:#000000;stroke-width:2.8;stroke-linecap:round;stroke-miterlimit:4;stroke-dasharray:none"
             d="m 372.88342,675.20234 c 24.63093,0 44.59824,19.96732 44.59824,44.59825 0,24.63092 -19.96731,44.59824 -44.59824,44.59824 -24.63095,0 -40.49732,-28.21792 -70.19137,-44.59824 28.53101,-15.97108 45.56042,-44.59825 70.19137,-44.59825 z"
             sodipodi:nodetypes="ssscs" />
          <path
             id="path1165"
             style="fill:#000000;fill-opacity:1;stroke:#000000;stroke-width:2.8;stroke-linecap:round;stroke-miterlimit:4;stroke-dasharray:none"
             d="m 372.88342,488.62309 c 24.63093,0 44.59824,19.96731 44.59824,44.59824 0,24.63093 -19.96731,44.59824 -44.59824,44.59824 -24.63093,0 -40.4973,-28.21791 -70.19137,-44.59824 28.53103,-15.97107 45.56044,-44.59824 70.19137,-44.59824 z"
             sodipodi:nodetypes="ssscs" />
          <path
             id="path1167"
             style="fill:#000000;fill-opacity:1;stroke:#000000;stroke-width:2.8;stroke-linecap:round;stroke-miterlimit:4;stroke-dasharray:none"
             d="m 372.88342,302.04386 c 24.63093,0 44.59824,19.96732 44.59824,44.59825 0,24.63092 -19.96731,44.59824 -44.59824,44.59824 -24.63094,0 -40.49732,-28.21792 -70.19137,-44.59824 28.53101,-15.97108 45.56043,-44.59825 70.19137,-44.59825 z"
             sodipodi:nodetypes="ssscs" />
          <path
             id="path1169"
             style="fill:#000000;fill-opacity:1;stroke:#000000;stroke-width:2.8;stroke-linecap:round;stroke-miterlimit:4;stroke-dasharray:none"
             d="m 372.88342,115.46459 c 24.63093,0 44.59824,19.96732 44.59824,44.59825 0,24.63092 -19.96731,44.59824 -44.59824,44.59824 -24.63094,0 -40.49732,-28.21792 -70.19137,-44.59824 28.53101,-15.97108 45.56043,-44.59825 70.19137,-44.59825 z"
             sodipodi:nodetypes="ssscs" />
        </g>
        <g
           id="g1183"
           transform="matrix(0.73973342,0,0,0.73973342,-1242.6194,-33.251499)">
          <path
             id="path1173"
             style="fill:#000000;fill-opacity:1;stroke:#000000;stroke-width:2.8;stroke-linecap:round;stroke-miterlimit:4;stroke-dasharray:none"
             d="m 118.53766,19.789238 c 24.63093,0 44.59824,19.96731 44.59824,44.59824 0,24.63093 -19.96731,44.598242 -44.59824,44.598242 -24.630932,0 -40.497312,-28.217912 -70.191372,-44.598242 28.53102,-15.97107 45.56044,-44.59824 70.191372,-44.59824 z"
             sodipodi:nodetypes="ssscs" />
          <path
             id="path1175"
             style="fill:#000000;fill-opacity:1;stroke:#000000;stroke-width:2.8;stroke-linecap:round;stroke-miterlimit:4;stroke-dasharray:none"
             d="m 118.53766,766.10625 c 24.63093,0 44.59824,19.96732 44.59824,44.59824 0,24.63093 -19.96731,44.59824 -44.59824,44.59824 -24.630931,10e-6 -40.497301,-28.21791 -70.191371,-44.59824 28.53103,-15.97107 45.56044,-44.59824 70.191371,-44.59824 z"
             sodipodi:nodetypes="ssscs" />
          <path
             id="path1177"
             style="fill:#000000;fill-opacity:1;stroke:#000000;stroke-width:2.8;stroke-linecap:round;stroke-miterlimit:4;stroke-dasharray:none"
             d="m 118.53766,579.52693 c 24.63093,0 44.59824,19.96732 44.59824,44.59825 0,24.63092 -19.96731,44.59824 -44.59824,44.59824 -24.630932,0 -40.497312,-28.21792 -70.191372,-44.59824 28.53102,-15.97108 45.56044,-44.59825 70.191372,-44.59825 z"
             sodipodi:nodetypes="ssscs" />
          <path
             id="path1179"
             style="fill:#000000;fill-opacity:1;stroke:#000000;stroke-width:2.8;stroke-linecap:round;stroke-miterlimit:4;stroke-dasharray:none"
             d="m 118.53766,392.94774 c 24.63093,0 44.59824,19.96731 44.59824,44.59824 0,24.63093 -19.96731,44.59824 -44.59824,44.59824 -24.630931,0 -40.497301,-28.21791 -70.191371,-44.59824 28.53103,-15.97107 45.56044,-44.59824 70.191371,-44.59824 z"
             sodipodi:nodetypes="ssscs" />
          <path
             id="path1181"
             style="fill:#000000;fill-opacity:1;stroke:#000000;stroke-width:2.8;stroke-linecap:round;stroke-miterlimit:4;stroke-dasharray:none"
             d="m 118.53766,206.36848 c 24.63093,0 44.59824,19.96732 44.59824,44.59825 0,24.63092 -19.96731,44.59824 -44.59824,44.59824 -24.630932,0 -40.497312,-28.21792 -70.191372,-44.59824 28.53102,-15.97108 45.56044,-44.59825 70.191372,-44.59825 z"
             sodipodi:nodetypes="ssscs" />
        </g>
        <g
           id="g1193"
           transform="matrix(0.73973342,0,0,0.73973342,-1172.0225,-35.016303)">
          <path
             id="path1185"
             style="fill:#000000;fill-opacity:1;stroke:#000000;stroke-width:2.8;stroke-linecap:round;stroke-miterlimit:4;stroke-dasharray:none"
             d="m 372.88342,675.20234 c 24.63093,0 44.59824,19.96732 44.59824,44.59825 0,24.63092 -19.96731,44.59824 -44.59824,44.59824 -24.63095,0 -40.49732,-28.21792 -70.19137,-44.59824 28.53101,-15.97108 45.56042,-44.59825 70.19137,-44.59825 z"
             sodipodi:nodetypes="ssscs" />
          <path
             id="path1187"
             style="fill:#000000;fill-opacity:1;stroke:#000000;stroke-width:2.8;stroke-linecap:round;stroke-miterlimit:4;stroke-dasharray:none"
             d="m 372.88342,488.62309 c 24.63093,0 44.59824,19.96731 44.59824,44.59824 0,24.63093 -19.96731,44.59824 -44.59824,44.59824 -24.63093,0 -40.4973,-28.21791 -70.19137,-44.59824 28.53103,-15.97107 45.56044,-44.59824 70.19137,-44.59824 z"
             sodipodi:nodetypes="ssscs" />
          <path
             id="path1189"
             style="fill:#000000;fill-opacity:1;stroke:#000000;stroke-width:2.8;stroke-linecap:round;stroke-miterlimit:4;stroke-dasharray:none"
             d="m 372.88342,302.04386 c 24.63093,0 44.59824,19.96732 44.59824,44.59825 0,24.63092 -19.96731,44.59824 -44.59824,44.59824 -24.63094,0 -40.49732,-28.21792 -70.19137,-44.59824 28.53101,-15.97108 45.56043,-44.59825 70.19137,-44.59825 z"
             sodipodi:nodetypes="ssscs" />
          <path
             id="path1191"
             style="fill:#000000;fill-opacity:1;stroke:#000000;stroke-width:2.8;stroke-linecap:round;stroke-miterlimit:4;stroke-dasharray:none"
             d="m 372.88342,115.46459 c 24.63093,0 44.59824,19.96732 44.59824,44.59825 0,24.63092 -19.96731,44.59824 -44.59824,44.59824 -24.63094,0 -40.49732,-28.21792 -70.19137,-44.59824 28.53101,-15.97108 45.56043,-44.59825 70.19137,-44.59825 z"
             sodipodi:nodetypes="ssscs" />
        </g>
        <g
           id="g1205"
           transform="matrix(0.73973342,0,0,0.73973342,-1760.1093,-33.251499)">
          <path
             id="path1195"
             style="fill:#000000;fill-opacity:1;stroke:#000000;stroke-width:2.8;stroke-linecap:round;stroke-miterlimit:4;stroke-dasharray:none"
             d="m 118.53766,19.789238 c 24.63093,0 44.59824,19.96731 44.59824,44.59824 0,24.63093 -19.96731,44.598242 -44.59824,44.598242 -24.630932,0 -40.497312,-28.217912 -70.191372,-44.598242 28.53102,-15.97107 45.56044,-44.59824 70.191372,-44.59824 z"
             sodipodi:nodetypes="ssscs" />
          <path
             id="path1197"
             style="fill:#000000;fill-opacity:1;stroke:#000000;stroke-width:2.8;stroke-linecap:round;stroke-miterlimit:4;stroke-dasharray:none"
             d="m 118.53766,766.10625 c 24.63093,0 44.59824,19.96732 44.59824,44.59824 0,24.63093 -19.96731,44.59824 -44.59824,44.59824 -24.630931,10e-6 -40.497301,-28.21791 -70.191371,-44.59824 28.53103,-15.97107 45.56044,-44.59824 70.191371,-44.59824 z"
             sodipodi:nodetypes="ssscs" />
          <path
             id="path1199"
             style="fill:#000000;fill-opacity:1;stroke:#000000;stroke-width:2.8;stroke-linecap:round;stroke-miterlimit:4;stroke-dasharray:none"
             d="m 118.53766,579.52693 c 24.63093,0 44.59824,19.96732 44.59824,44.59825 0,24.63092 -19.96731,44.59824 -44.59824,44.59824 -24.630932,0 -40.497312,-28.21792 -70.191372,-44.59824 28.53102,-15.97108 45.56044,-44.59825 70.191372,-44.59825 z"
             sodipodi:nodetypes="ssscs" />
          <path
             id="path1201"
             style="fill:#000000;fill-opacity:1;stroke:#000000;stroke-width:2.8;stroke-linecap:round;stroke-miterlimit:4;stroke-dasharray:none"
             d="m 118.53766,392.94774 c 24.63093,0 44.59824,19.96731 44.59824,44.59824 0,24.63093 -19.96731,44.59824 -44.59824,44.59824 -24.630931,0 -40.497301,-28.21791 -70.191371,-44.59824 28.53103,-15.97107 45.56044,-44.59824 70.191371,-44.59824 z"
             sodipodi:nodetypes="ssscs" />
          <path
             id="path1203"
             style="fill:#000000;fill-opacity:1;stroke:#000000;stroke-width:2.8;stroke-linecap:round;stroke-miterlimit:4;stroke-dasharray:none"
             d="m 118.53766,206.36848 c 24.63093,0 44.59824,19.96732 44.59824,44.59825 0,24.63092 -19.96731,44.59824 -44.59824,44.59824 -24.630932,0 -40.497312,-28.21792 -70.191372,-44.59824 28.53102,-15.97108 45.56044,-44.59825 70.191372,-44.59825 z"
             sodipodi:nodetypes="ssscs" />
        </g>
        <g
           id="g1215"
           transform="matrix(0.73973342,0,0,0.73973342,-1689.5124,-35.016303)">
          <path
             id="path1207"
             style="fill:#000000;fill-opacity:1;stroke:#000000;stroke-width:2.8;stroke-linecap:round;stroke-miterlimit:4;stroke-dasharray:none"
             d="m 372.88342,675.20234 c 24.63093,0 44.59824,19.96732 44.59824,44.59825 0,24.63092 -19.96731,44.59824 -44.59824,44.59824 -24.63095,0 -40.49732,-28.21792 -70.19137,-44.59824 28.53101,-15.97108 45.56042,-44.59825 70.19137,-44.59825 z"
             sodipodi:nodetypes="ssscs" />
          <path
             id="path1209"
             style="fill:#000000;fill-opacity:1;stroke:#000000;stroke-width:2.8;stroke-linecap:round;stroke-miterlimit:4;stroke-dasharray:none"
             d="m 372.88342,488.62309 c 24.63093,0 44.59824,19.96731 44.59824,44.59824 0,24.63093 -19.96731,44.59824 -44.59824,44.59824 -24.63093,0 -40.4973,-28.21791 -70.19137,-44.59824 28.53103,-15.97107 45.56044,-44.59824 70.19137,-44.59824 z"
             sodipodi:nodetypes="ssscs" />
          <path
             id="path1211"
             style="fill:#000000;fill-opacity:1;stroke:#000000;stroke-width:2.8;stroke-linecap:round;stroke-miterlimit:4;stroke-dasharray:none"
             d="m 372.88342,302.04386 c 24.63093,0 44.59824,19.96732 44.59824,44.59825 0,24.63092 -19.96731,44.59824 -44.59824,44.59824 -24.63094,0 -40.49732,-28.21792 -70.19137,-44.59824 28.53101,-15.97108 45.56043,-44.59825 70.19137,-44.59825 z"
             sodipodi:nodetypes="ssscs" />
          <path
             id="path1213"
             style="fill:#000000;fill-opacity:1;stroke:#000000;stroke-width:2.8;stroke-linecap:round;stroke-miterlimit:4;stroke-dasharray:none"
             d="m 372.88342,115.46459 c 24.63093,0 44.59824,19.96732 44.59824,44.59825 0,24.63092 -19.96731,44.59824 -44.59824,44.59824 -24.63094,0 -40.49732,-28.21792 -70.19137,-44.59824 28.53101,-15.97108 45.56043,-44.59825 70.19137,-44.59825 z"
             sodipodi:nodetypes="ssscs" />
        </g>
        <g
           id="g1227"
           transform="matrix(0.73973342,0,0,0.73973342,-2277.5993,-33.251499)">
          <path
             id="path1217"
             style="fill:#000000;fill-opacity:1;stroke:#000000;stroke-width:2.8;stroke-linecap:round;stroke-miterlimit:4;stroke-dasharray:none"
             d="m 118.53766,19.789238 c 24.63093,0 44.59824,19.96731 44.59824,44.59824 0,24.63093 -19.96731,44.598242 -44.59824,44.598242 -24.630932,0 -40.497312,-28.217912 -70.191372,-44.598242 28.53102,-15.97107 45.56044,-44.59824 70.191372,-44.59824 z"
             sodipodi:nodetypes="ssscs" />
          <path
             id="path1219"
             style="fill:#000000;fill-opacity:1;stroke:#000000;stroke-width:2.8;stroke-linecap:round;stroke-miterlimit:4;stroke-dasharray:none"
             d="m 118.53766,766.10625 c 24.63093,0 44.59824,19.96732 44.59824,44.59824 0,24.63093 -19.96731,44.59824 -44.59824,44.59824 -24.630931,10e-6 -40.497301,-28.21791 -70.191371,-44.59824 28.53103,-15.97107 45.56044,-44.59824 70.191371,-44.59824 z"
             sodipodi:nodetypes="ssscs" />
          <path
             id="path1221"
             style="fill:#000000;fill-opacity:1;stroke:#000000;stroke-width:2.8;stroke-linecap:round;stroke-miterlimit:4;stroke-dasharray:none"
             d="m 118.53766,579.52693 c 24.63093,0 44.59824,19.96732 44.59824,44.59825 0,24.63092 -19.96731,44.59824 -44.59824,44.59824 -24.630932,0 -40.497312,-28.21792 -70.191372,-44.59824 28.53102,-15.97108 45.56044,-44.59825 70.191372,-44.59825 z"
             sodipodi:nodetypes="ssscs" />
          <path
             id="path1223"
             style="fill:#000000;fill-opacity:1;stroke:#000000;stroke-width:2.8;stroke-linecap:round;stroke-miterlimit:4;stroke-dasharray:none"
             d="m 118.53766,392.94774 c 24.63093,0 44.59824,19.96731 44.59824,44.59824 0,24.63093 -19.96731,44.59824 -44.59824,44.59824 -24.630931,0 -40.497301,-28.21791 -70.191371,-44.59824 28.53103,-15.97107 45.56044,-44.59824 70.191371,-44.59824 z"
             sodipodi:nodetypes="ssscs" />
          <path
             id="path1225"
             style="fill:#000000;fill-opacity:1;stroke:#000000;stroke-width:2.8;stroke-linecap:round;stroke-miterlimit:4;stroke-dasharray:none"
             d="m 118.53766,206.36848 c 24.63093,0 44.59824,19.96732 44.59824,44.59825 0,24.63092 -19.96731,44.59824 -44.59824,44.59824 -24.630932,0 -40.497312,-28.21792 -70.191372,-44.59824 28.53102,-15.97108 45.56044,-44.59825 70.191372,-44.59825 z"
             sodipodi:nodetypes="ssscs" />
        </g>
        <g
           id="g1237"
           transform="matrix(0.73973342,0,0,0.73973342,-2207.0024,-35.016303)">
          <path
             id="path1229"
             style="fill:#000000;fill-opacity:1;stroke:#000000;stroke-width:2.8;stroke-linecap:round;stroke-miterlimit:4;stroke-dasharray:none"
             d="m 372.88342,675.20234 c 24.63093,0 44.59824,19.96732 44.59824,44.59825 0,24.63092 -19.96731,44.59824 -44.59824,44.59824 -24.63095,0 -40.49732,-28.21792 -70.19137,-44.59824 28.53101,-15.97108 45.56042,-44.59825 70.19137,-44.59825 z"
             sodipodi:nodetypes="ssscs" />
          <path
             id="path1231"
             style="fill:#000000;fill-opacity:1;stroke:#000000;stroke-width:2.8;stroke-linecap:round;stroke-miterlimit:4;stroke-dasharray:none"
             d="m 372.88342,488.62309 c 24.63093,0 44.59824,19.96731 44.59824,44.59824 0,24.63093 -19.96731,44.59824 -44.59824,44.59824 -24.63093,0 -40.4973,-28.21791 -70.19137,-44.59824 28.53103,-15.97107 45.56044,-44.59824 70.19137,-44.59824 z"
             sodipodi:nodetypes="ssscs" />
          <path
             id="path1233"
             style="fill:#000000;fill-opacity:1;stroke:#000000;stroke-width:2.8;stroke-linecap:round;stroke-miterlimit:4;stroke-dasharray:none"
             d="m 372.88342,302.04386 c 24.63093,0 44.59824,19.96732 44.59824,44.59825 0,24.63092 -19.96731,44.59824 -44.59824,44.59824 -24.63094,0 -40.49732,-28.21792 -70.19137,-44.59824 28.53101,-15.97108 45.56043,-44.59825 70.19137,-44.59825 z"
             sodipodi:nodetypes="ssscs" />
          <path
             id="path1235"
             style="fill:#000000;fill-opacity:1;stroke:#000000;stroke-width:2.8;stroke-linecap:round;stroke-miterlimit:4;stroke-dasharray:none"
             d="m 372.88342,115.46459 c 24.63093,0 44.59824,19.96732 44.59824,44.59825 0,24.63092 -19.96731,44.59824 -44.59824,44.59824 -24.63094,0 -40.49732,-28.21792 -70.19137,-44.59824 28.53101,-15.97108 45.56043,-44.59825 70.19137,-44.59825 z"
             sodipodi:nodetypes="ssscs" />
        </g>
        <g
           id="g1249"
           transform="matrix(0.73973342,0,0,0.73973342,1344.8305,-33.251499)">
          <path
             id="path1239"
             style="fill:#000000;fill-opacity:1;stroke:#000000;stroke-width:2.8;stroke-linecap:round;stroke-miterlimit:4;stroke-dasharray:none"
             d="m 118.53766,19.789238 c 24.63093,0 44.59824,19.96731 44.59824,44.59824 0,24.63093 -19.96731,44.598242 -44.59824,44.598242 -24.630932,0 -40.497312,-28.217912 -70.191372,-44.598242 28.53102,-15.97107 45.56044,-44.59824 70.191372,-44.59824 z"
             sodipodi:nodetypes="ssscs" />
          <path
             id="path1241"
             style="fill:#000000;fill-opacity:1;stroke:#000000;stroke-width:2.8;stroke-linecap:round;stroke-miterlimit:4;stroke-dasharray:none"
             d="m 118.53766,766.10625 c 24.63093,0 44.59824,19.96732 44.59824,44.59824 0,24.63093 -19.96731,44.59824 -44.59824,44.59824 -24.630931,10e-6 -40.497301,-28.21791 -70.191371,-44.59824 28.53103,-15.97107 45.56044,-44.59824 70.191371,-44.59824 z"
             sodipodi:nodetypes="ssscs" />
          <path
             id="path1243"
             style="fill:#000000;fill-opacity:1;stroke:#000000;stroke-width:2.8;stroke-linecap:round;stroke-miterlimit:4;stroke-dasharray:none"
             d="m 118.53766,579.52693 c 24.63093,0 44.59824,19.96732 44.59824,44.59825 0,24.63092 -19.96731,44.59824 -44.59824,44.59824 -24.630932,0 -40.497312,-28.21792 -70.191372,-44.59824 28.53102,-15.97108 45.56044,-44.59825 70.191372,-44.59825 z"
             sodipodi:nodetypes="ssscs" />
          <path
             id="path1245"
             style="fill:#000000;fill-opacity:1;stroke:#000000;stroke-width:2.8;stroke-linecap:round;stroke-miterlimit:4;stroke-dasharray:none"
             d="m 118.53766,392.94774 c 24.63093,0 44.59824,19.96731 44.59824,44.59824 0,24.63093 -19.96731,44.59824 -44.59824,44.59824 -24.630931,0 -40.497301,-28.21791 -70.191371,-44.59824 28.53103,-15.97107 45.56044,-44.59824 70.191371,-44.59824 z"
             sodipodi:nodetypes="ssscs" />
          <path
             id="path1247"
             style="fill:#000000;fill-opacity:1;stroke:#000000;stroke-width:2.8;stroke-linecap:round;stroke-miterlimit:4;stroke-dasharray:none"
             d="m 118.53766,206.36848 c 24.63093,0 44.59824,19.96732 44.59824,44.59825 0,24.63092 -19.96731,44.59824 -44.59824,44.59824 -24.630932,0 -40.497312,-28.21792 -70.191372,-44.59824 28.53102,-15.97108 45.56044,-44.59825 70.191372,-44.59825 z"
             sodipodi:nodetypes="ssscs" />
        </g>
        <g
           id="g1259"
           transform="matrix(0.73973342,0,0,0.73973342,1415.4275,-35.016303)">
          <path
             id="path1251"
             style="fill:#000000;fill-opacity:1;stroke:#000000;stroke-width:2.8;stroke-linecap:round;stroke-miterlimit:4;stroke-dasharray:none"
             d="m 372.88342,675.20234 c 24.63093,0 44.59824,19.96732 44.59824,44.59825 0,24.63092 -19.96731,44.59824 -44.59824,44.59824 -24.63095,0 -40.49732,-28.21792 -70.19137,-44.59824 28.53101,-15.97108 45.56042,-44.59825 70.19137,-44.59825 z"
             sodipodi:nodetypes="ssscs" />
          <path
             id="path1253"
             style="fill:#000000;fill-opacity:1;stroke:#000000;stroke-width:2.8;stroke-linecap:round;stroke-miterlimit:4;stroke-dasharray:none"
             d="m 372.88342,488.62309 c 24.63093,0 44.59824,19.96731 44.59824,44.59824 0,24.63093 -19.96731,44.59824 -44.59824,44.59824 -24.63093,0 -40.4973,-28.21791 -70.19137,-44.59824 28.53103,-15.97107 45.56044,-44.59824 70.19137,-44.59824 z"
             sodipodi:nodetypes="ssscs" />
          <path
             id="path1255"
             style="fill:#000000;fill-opacity:1;stroke:#000000;stroke-width:2.8;stroke-linecap:round;stroke-miterlimit:4;stroke-dasharray:none"
             d="m 372.88342,302.04386 c 24.63093,0 44.59824,19.96732 44.59824,44.59825 0,24.63092 -19.96731,44.59824 -44.59824,44.59824 -24.63094,0 -40.49732,-28.21792 -70.19137,-44.59824 28.53101,-15.97108 45.56043,-44.59825 70.19137,-44.59825 z"
             sodipodi:nodetypes="ssscs" />
          <path
             id="path1257"
             style="fill:#000000;fill-opacity:1;stroke:#000000;stroke-width:2.8;stroke-linecap:round;stroke-miterlimit:4;stroke-dasharray:none"
             d="m 372.88342,115.46459 c 24.63093,0 44.59824,19.96732 44.59824,44.59825 0,24.63092 -19.96731,44.59824 -44.59824,44.59824 -24.63094,0 -40.49732,-28.21792 -70.19137,-44.59824 28.53101,-15.97108 45.56043,-44.59825 70.19137,-44.59825 z"
             sodipodi:nodetypes="ssscs" />
        </g>
        <g
           id="g1271"
           transform="matrix(0.73973342,0,0,0.73973342,827.34038,-33.251499)">
          <path
             id="path1261"
             style="fill:#000000;fill-opacity:1;stroke:#000000;stroke-width:2.8;stroke-linecap:round;stroke-miterlimit:4;stroke-dasharray:none"
             d="m 118.53766,19.789238 c 24.63093,0 44.59824,19.96731 44.59824,44.59824 0,24.63093 -19.96731,44.598242 -44.59824,44.598242 -24.630932,0 -40.497312,-28.217912 -70.191372,-44.598242 28.53102,-15.97107 45.56044,-44.59824 70.191372,-44.59824 z"
             sodipodi:nodetypes="ssscs" />
          <path
             id="path1263"
             style="fill:#000000;fill-opacity:1;stroke:#000000;stroke-width:2.8;stroke-linecap:round;stroke-miterlimit:4;stroke-dasharray:none"
             d="m 118.53766,766.10625 c 24.63093,0 44.59824,19.96732 44.59824,44.59824 0,24.63093 -19.96731,44.59824 -44.59824,44.59824 -24.630931,10e-6 -40.497301,-28.21791 -70.191371,-44.59824 28.53103,-15.97107 45.56044,-44.59824 70.191371,-44.59824 z"
             sodipodi:nodetypes="ssscs" />
          <path
             id="path1265"
             style="fill:#000000;fill-opacity:1;stroke:#000000;stroke-width:2.8;stroke-linecap:round;stroke-miterlimit:4;stroke-dasharray:none"
             d="m 118.53766,579.52693 c 24.63093,0 44.59824,19.96732 44.59824,44.59825 0,24.63092 -19.96731,44.59824 -44.59824,44.59824 -24.630932,0 -40.497312,-28.21792 -70.191372,-44.59824 28.53102,-15.97108 45.56044,-44.59825 70.191372,-44.59825 z"
             sodipodi:nodetypes="ssscs" />
          <path
             id="path1267"
             style="fill:#000000;fill-opacity:1;stroke:#000000;stroke-width:2.8;stroke-linecap:round;stroke-miterlimit:4;stroke-dasharray:none"
             d="m 118.53766,392.94774 c 24.63093,0 44.59824,19.96731 44.59824,44.59824 0,24.63093 -19.96731,44.59824 -44.59824,44.59824 -24.630931,0 -40.497301,-28.21791 -70.191371,-44.59824 28.53103,-15.97107 45.56044,-44.59824 70.191371,-44.59824 z"
             sodipodi:nodetypes="ssscs" />
          <path
             id="path1269"
             style="fill:#000000;fill-opacity:1;stroke:#000000;stroke-width:2.8;stroke-linecap:round;stroke-miterlimit:4;stroke-dasharray:none"
             d="m 118.53766,206.36848 c 24.63093,0 44.59824,19.96732 44.59824,44.59825 0,24.63092 -19.96731,44.59824 -44.59824,44.59824 -24.630932,0 -40.497312,-28.21792 -70.191372,-44.59824 28.53102,-15.97108 45.56044,-44.59825 70.191372,-44.59825 z"
             sodipodi:nodetypes="ssscs" />
        </g>
        <g
           id="g1281"
           transform="matrix(0.73973342,0,0,0.73973342,897.93743,-35.016303)">
          <path
             id="path1273"
             style="fill:#000000;fill-opacity:1;stroke:#000000;stroke-width:2.8;stroke-linecap:round;stroke-miterlimit:4;stroke-dasharray:none"
             d="m 372.88342,675.20234 c 24.63093,0 44.59824,19.96732 44.59824,44.59825 0,24.63092 -19.96731,44.59824 -44.59824,44.59824 -24.63095,0 -40.49732,-28.21792 -70.19137,-44.59824 28.53101,-15.97108 45.56042,-44.59825 70.19137,-44.59825 z"
             sodipodi:nodetypes="ssscs" />
          <path
             id="path1275"
             style="fill:#000000;fill-opacity:1;stroke:#000000;stroke-width:2.8;stroke-linecap:round;stroke-miterlimit:4;stroke-dasharray:none"
             d="m 372.88342,488.62309 c 24.63093,0 44.59824,19.96731 44.59824,44.59824 0,24.63093 -19.96731,44.59824 -44.59824,44.59824 -24.63093,0 -40.4973,-28.21791 -70.19137,-44.59824 28.53103,-15.97107 45.56044,-44.59824 70.19137,-44.59824 z"
             sodipodi:nodetypes="ssscs" />
          <path
             id="path1277"
             style="fill:#000000;fill-opacity:1;stroke:#000000;stroke-width:2.8;stroke-linecap:round;stroke-miterlimit:4;stroke-dasharray:none"
             d="m 372.88342,302.04386 c 24.63093,0 44.59824,19.96732 44.59824,44.59825 0,24.63092 -19.96731,44.59824 -44.59824,44.59824 -24.63094,0 -40.49732,-28.21792 -70.19137,-44.59824 28.53101,-15.97108 45.56043,-44.59825 70.19137,-44.59825 z"
             sodipodi:nodetypes="ssscs" />
          <path
             id="path1279"
             style="fill:#000000;fill-opacity:1;stroke:#000000;stroke-width:2.8;stroke-linecap:round;stroke-miterlimit:4;stroke-dasharray:none"
             d="m 372.88342,115.46459 c 24.63093,0 44.59824,19.96732 44.59824,44.59825 0,24.63092 -19.96731,44.59824 -44.59824,44.59824 -24.63094,0 -40.49732,-28.21792 -70.19137,-44.59824 28.53101,-15.97108 45.56043,-44.59825 70.19137,-44.59825 z"
             sodipodi:nodetypes="ssscs" />
        </g>
        <g
           id="g1293"
           transform="matrix(0.73973342,0,0,0.73973342,309.85047,-33.251499)">
          <path
             id="path1283"
             style="fill:#000000;fill-opacity:1;stroke:#000000;stroke-width:2.8;stroke-linecap:round;stroke-miterlimit:4;stroke-dasharray:none"
             d="m 118.53766,19.789238 c 24.63093,0 44.59824,19.96731 44.59824,44.59824 0,24.63093 -19.96731,44.598242 -44.59824,44.598242 -24.630932,0 -40.497312,-28.217912 -70.191372,-44.598242 28.53102,-15.97107 45.56044,-44.59824 70.191372,-44.59824 z"
             sodipodi:nodetypes="ssscs" />
          <path
             id="path1285"
             style="fill:#000000;fill-opacity:1;stroke:#000000;stroke-width:2.8;stroke-linecap:round;stroke-miterlimit:4;stroke-dasharray:none"
             d="m 118.53766,766.10625 c 24.63093,0 44.59824,19.96732 44.59824,44.59824 0,24.63093 -19.96731,44.59824 -44.59824,44.59824 -24.630931,10e-6 -40.497301,-28.21791 -70.191371,-44.59824 28.53103,-15.97107 45.56044,-44.59824 70.191371,-44.59824 z"
             sodipodi:nodetypes="ssscs" />
          <path
             id="path1287"
             style="fill:#000000;fill-opacity:1;stroke:#000000;stroke-width:2.8;stroke-linecap:round;stroke-miterlimit:4;stroke-dasharray:none"
             d="m 118.53766,579.52693 c 24.63093,0 44.59824,19.96732 44.59824,44.59825 0,24.63092 -19.96731,44.59824 -44.59824,44.59824 -24.630932,0 -40.497312,-28.21792 -70.191372,-44.59824 28.53102,-15.97108 45.56044,-44.59825 70.191372,-44.59825 z"
             sodipodi:nodetypes="ssscs" />
          <path
             id="path1289"
             style="fill:#000000;fill-opacity:1;stroke:#000000;stroke-width:2.8;stroke-linecap:round;stroke-miterlimit:4;stroke-dasharray:none"
             d="m 118.53766,392.94774 c 24.63093,0 44.59824,19.96731 44.59824,44.59824 0,24.63093 -19.96731,44.59824 -44.59824,44.59824 -24.630931,0 -40.497301,-28.21791 -70.191371,-44.59824 28.53103,-15.97107 45.56044,-44.59824 70.191371,-44.59824 z"
             sodipodi:nodetypes="ssscs" />
          <path
             id="path1291"
             style="fill:#000000;fill-opacity:1;stroke:#000000;stroke-width:2.8;stroke-linecap:round;stroke-miterlimit:4;stroke-dasharray:none"
             d="m 118.53766,206.36848 c 24.63093,0 44.59824,19.96732 44.59824,44.59825 0,24.63092 -19.96731,44.59824 -44.59824,44.59824 -24.630932,0 -40.497312,-28.21792 -70.191372,-44.59824 28.53102,-15.97108 45.56044,-44.59825 70.191372,-44.59825 z"
             sodipodi:nodetypes="ssscs" />
        </g>
        <g
           id="g1303"
           transform="matrix(0.73973342,0,0,0.73973342,380.44738,-35.016303)">
          <path
             id="path1295"
             style="fill:#000000;fill-opacity:1;stroke:#000000;stroke-width:2.8;stroke-linecap:round;stroke-miterlimit:4;stroke-dasharray:none"
             d="m 372.88342,675.20234 c 24.63093,0 44.59824,19.96732 44.59824,44.59825 0,24.63092 -19.96731,44.59824 -44.59824,44.59824 -24.63095,0 -40.49732,-28.21792 -70.19137,-44.59824 28.53101,-15.97108 45.56042,-44.59825 70.19137,-44.59825 z"
             sodipodi:nodetypes="ssscs" />
          <path
             id="path1297"
             style="fill:#000000;fill-opacity:1;stroke:#000000;stroke-width:2.8;stroke-linecap:round;stroke-miterlimit:4;stroke-dasharray:none"
             d="m 372.88342,488.62309 c 24.63093,0 44.59824,19.96731 44.59824,44.59824 0,24.63093 -19.96731,44.59824 -44.59824,44.59824 -24.63093,0 -40.4973,-28.21791 -70.19137,-44.59824 28.53103,-15.97107 45.56044,-44.59824 70.19137,-44.59824 z"
             sodipodi:nodetypes="ssscs" />
          <path
             id="path1299"
             style="fill:#000000;fill-opacity:1;stroke:#000000;stroke-width:2.8;stroke-linecap:round;stroke-miterlimit:4;stroke-dasharray:none"
             d="m 372.88342,302.04386 c 24.63093,0 44.59824,19.96732 44.59824,44.59825 0,24.63092 -19.96731,44.59824 -44.59824,44.59824 -24.63094,0 -40.49732,-28.21792 -70.19137,-44.59824 28.53101,-15.97108 45.56043,-44.59825 70.19137,-44.59825 z"
             sodipodi:nodetypes="ssscs" />
          <path
             id="path1301"
             style="fill:#000000;fill-opacity:1;stroke:#000000;stroke-width:2.8;stroke-linecap:round;stroke-miterlimit:4;stroke-dasharray:none"
             d="m 372.88342,115.46459 c 24.63093,0 44.59824,19.96732 44.59824,44.59825 0,24.63092 -19.96731,44.59824 -44.59824,44.59824 -24.63094,0 -40.49732,-28.21792 -70.19137,-44.59824 28.53101,-15.97108 45.56043,-44.59825 70.19137,-44.59825 z"
             sodipodi:nodetypes="ssscs" />
        </g>
        <g
           id="g1315"
           transform="matrix(0.73973342,0,0,0.73973342,-207.6395,-33.251499)">
          <path
             id="path1305"
             style="fill:#000000;fill-opacity:1;stroke:#000000;stroke-width:2.8;stroke-linecap:round;stroke-miterlimit:4;stroke-dasharray:none"
             d="m 118.53766,19.789238 c 24.63093,0 44.59824,19.96731 44.59824,44.59824 0,24.63093 -19.96731,44.598242 -44.59824,44.598242 -24.630932,0 -40.497312,-28.217912 -70.191372,-44.598242 28.53102,-15.97107 45.56044,-44.59824 70.191372,-44.59824 z"
             sodipodi:nodetypes="ssscs" />
          <path
             id="path1307"
             style="fill:#000000;fill-opacity:1;stroke:#000000;stroke-width:2.8;stroke-linecap:round;stroke-miterlimit:4;stroke-dasharray:none"
             d="m 118.53766,766.10625 c 24.63093,0 44.59824,19.96732 44.59824,44.59824 0,24.63093 -19.96731,44.59824 -44.59824,44.59824 -24.630931,10e-6 -40.497301,-28.21791 -70.191371,-44.59824 28.53103,-15.97107 45.56044,-44.59824 70.191371,-44.59824 z"
             sodipodi:nodetypes="ssscs" />
          <path
             id="path1309"
             style="fill:#000000;fill-opacity:1;stroke:#000000;stroke-width:2.8;stroke-linecap:round;stroke-miterlimit:4;stroke-dasharray:none"
             d="m 118.53766,579.52693 c 24.63093,0 44.59824,19.96732 44.59824,44.59825 0,24.63092 -19.96731,44.59824 -44.59824,44.59824 -24.630932,0 -40.497312,-28.21792 -70.191372,-44.59824 28.53102,-15.97108 45.56044,-44.59825 70.191372,-44.59825 z"
             sodipodi:nodetypes="ssscs" />
          <path
             id="path1311"
             style="fill:#000000;fill-opacity:1;stroke:#000000;stroke-width:2.8;stroke-linecap:round;stroke-miterlimit:4;stroke-dasharray:none"
             d="m 118.53766,392.94774 c 24.63093,0 44.59824,19.96731 44.59824,44.59824 0,24.63093 -19.96731,44.59824 -44.59824,44.59824 -24.630931,0 -40.497301,-28.21791 -70.191371,-44.59824 28.53103,-15.97107 45.56044,-44.59824 70.191371,-44.59824 z"
             sodipodi:nodetypes="ssscs" />
          <path
             id="path1313"
             style="fill:#000000;fill-opacity:1;stroke:#000000;stroke-width:2.8;stroke-linecap:round;stroke-miterlimit:4;stroke-dasharray:none"
             d="m 118.53766,206.36848 c 24.63093,0 44.59824,19.96732 44.59824,44.59825 0,24.63092 -19.96731,44.59824 -44.59824,44.59824 -24.630932,0 -40.497312,-28.21792 -70.191372,-44.59824 28.53102,-15.97108 45.56044,-44.59825 70.191372,-44.59825 z"
             sodipodi:nodetypes="ssscs" />
        </g>
        <g
           id="g1325"
           transform="matrix(0.73973342,0,0,0.73973342,-137.04255,-35.016303)">
          <path
             id="path1317"
             style="fill:#000000;fill-opacity:1;stroke:#000000;stroke-width:2.8;stroke-linecap:round;stroke-miterlimit:4;stroke-dasharray:none"
             d="m 372.88342,675.20234 c 24.63093,0 44.59824,19.96732 44.59824,44.59825 0,24.63092 -19.96731,44.59824 -44.59824,44.59824 -24.63095,0 -40.49732,-28.21792 -70.19137,-44.59824 28.53101,-15.97108 45.56042,-44.59825 70.19137,-44.59825 z"
             sodipodi:nodetypes="ssscs" />
          <path
             id="path1319"
             style="fill:#000000;fill-opacity:1;stroke:#000000;stroke-width:2.8;stroke-linecap:round;stroke-miterlimit:4;stroke-dasharray:none"
             d="m 372.88342,488.62309 c 24.63093,0 44.59824,19.96731 44.59824,44.59824 0,24.63093 -19.96731,44.59824 -44.59824,44.59824 -24.63093,0 -40.4973,-28.21791 -70.19137,-44.59824 28.53103,-15.97107 45.56044,-44.59824 70.19137,-44.59824 z"
             sodipodi:nodetypes="ssscs" />
          <path
             id="path1321"
             style="fill:#000000;fill-opacity:1;stroke:#000000;stroke-width:2.8;stroke-linecap:round;stroke-miterlimit:4;stroke-dasharray:none"
             d="m 372.88342,302.04386 c 24.63093,0 44.59824,19.96732 44.59824,44.59825 0,24.63092 -19.96731,44.59824 -44.59824,44.59824 -24.63094,0 -40.49732,-28.21792 -70.19137,-44.59824 28.53101,-15.97108 45.56043,-44.59825 70.19137,-44.59825 z"
             sodipodi:nodetypes="ssscs" />
          <path
             id="path1323"
             style="fill:#000000;fill-opacity:1;stroke:#000000;stroke-width:2.8;stroke-linecap:round;stroke-miterlimit:4;stroke-dasharray:none"
             d="m 372.88342,115.46459 c 24.63093,0 44.59824,19.96732 44.59824,44.59825 0,24.63092 -19.96731,44.59824 -44.59824,44.59824 -24.63094,0 -40.49732,-28.21792 -70.19137,-44.59824 28.53101,-15.97108 45.56043,-44.59825 70.19137,-44.59825 z"
             sodipodi:nodetypes="ssscs" />
        </g>
        <path
           id="path1327"
           style="fill:#000000;fill-opacity:1;stroke:#000000;stroke-width:0.477349;stroke-linecap:round;stroke-miterlimit:4;stroke-dasharray:none"
           d="m -2863.992,354.5197 c 0,51.9213 20.6257,101.71608 57.3395,138.42999 36.7139,36.71392 86.5087,57.33958 138.43,57.3396 0.5425,0 1.0851,-0.002 1.6275,-0.007 -0.7507,5.58334 -1.1273,11.21061 -1.1273,16.84419 0,33.52489 13.3177,65.6767 37.0234,89.38237 23.7056,23.70568 55.8575,37.02338 89.3824,37.02338 33.5248,0 65.6766,-13.3177 89.3823,-37.02338 23.7057,-23.70568 37.0234,-55.85748 37.0234,-89.38237 l 0.041,-580.183463 c 0,-26.427272 -10.4982,-51.772093 -29.1851,-70.459016 -18.6869,-18.686921 -44.0318,-29.185071 -70.459,-29.185151 -23.8386,0 -46.8874,8.54637 -64.9633,24.088018 -18.0759,15.541651 -29.981,37.04866 -33.5548,60.617898 -7.8307,-1.198738 -15.7412,-1.800659 -23.6631,-1.800659 -41.4762,0 -81.2536,16.476305 -110.5817,45.804441 -29.3281,29.328063 -45.8045,69.105452 -45.8045,110.581642 0,22.84592 5.0056,45.41438 14.6646,66.11796 -53.5371,36.45909 -85.5752,97.03875 -85.5752,161.81129 z"
           sodipodi:nodetypes="ssscssssccssscssscs" />
        <g
           id="g1339"
           transform="matrix(0.73973342,0,0,0.73973342,3414.7901,-33.251499)">
          <path
             id="path1329"
             style="fill:#000000;fill-opacity:1;stroke:#000000;stroke-width:2.8;stroke-linecap:round;stroke-miterlimit:4;stroke-dasharray:none"
             d="m 118.53766,19.789238 c 24.63093,0 44.59824,19.96731 44.59824,44.59824 0,24.63093 -19.96731,44.598242 -44.59824,44.598242 -24.630932,0 -40.497312,-28.217912 -70.191372,-44.598242 28.53102,-15.97107 45.56044,-44.59824 70.191372,-44.59824 z"
             sodipodi:nodetypes="ssscs" />
          <path
             id="path1331"
             style="fill:#000000;fill-opacity:1;stroke:#000000;stroke-width:2.8;stroke-linecap:round;stroke-miterlimit:4;stroke-dasharray:none"
             d="m 118.53766,766.10625 c 24.63093,0 44.59824,19.96732 44.59824,44.59824 0,24.63093 -19.96731,44.59824 -44.59824,44.59824 -24.630931,10e-6 -40.497301,-28.21791 -70.191371,-44.59824 28.53103,-15.97107 45.56044,-44.59824 70.191371,-44.59824 z"
             sodipodi:nodetypes="ssscs" />
          <path
             id="path1333"
             style="fill:#000000;fill-opacity:1;stroke:#000000;stroke-width:2.8;stroke-linecap:round;stroke-miterlimit:4;stroke-dasharray:none"
             d="m 118.53766,579.52693 c 24.63093,0 44.59824,19.96732 44.59824,44.59825 0,24.63092 -19.96731,44.59824 -44.59824,44.59824 -24.630932,0 -40.497312,-28.21792 -70.191372,-44.59824 28.53102,-15.97108 45.56044,-44.59825 70.191372,-44.59825 z"
             sodipodi:nodetypes="ssscs" />
          <path
             id="path1335"
             style="fill:#000000;fill-opacity:1;stroke:#000000;stroke-width:2.8;stroke-linecap:round;stroke-miterlimit:4;stroke-dasharray:none"
             d="m 118.53766,392.94774 c 24.63093,0 44.59824,19.96731 44.59824,44.59824 0,24.63093 -19.96731,44.59824 -44.59824,44.59824 -24.630931,0 -40.497301,-28.21791 -70.191371,-44.59824 28.53103,-15.97107 45.56044,-44.59824 70.191371,-44.59824 z"
             sodipodi:nodetypes="ssscs" />
          <path
             id="path1337"
             style="fill:#000000;fill-opacity:1;stroke:#000000;stroke-width:2.8;stroke-linecap:round;stroke-miterlimit:4;stroke-dasharray:none"
             d="m 118.53766,206.36848 c 24.63093,0 44.59824,19.96732 44.59824,44.59825 0,24.63092 -19.96731,44.59824 -44.59824,44.59824 -24.630932,0 -40.497312,-28.21792 -70.191372,-44.59824 28.53102,-15.97108 45.56044,-44.59825 70.191372,-44.59825 z"
             sodipodi:nodetypes="ssscs" />
        </g>
        <g
           id="g1349"
           transform="matrix(0.73973342,0,0,0.73973342,3485.3868,-35.016303)">
          <path
             id="path1341"
             style="fill:#000000;fill-opacity:1;stroke:#000000;stroke-width:2.8;stroke-linecap:round;stroke-miterlimit:4;stroke-dasharray:none"
             d="m 372.88342,675.20234 c 24.63093,0 44.59824,19.96732 44.59824,44.59825 0,24.63092 -19.96731,44.59824 -44.59824,44.59824 -24.63095,0 -40.49732,-28.21792 -70.19137,-44.59824 28.53101,-15.97108 45.56042,-44.59825 70.19137,-44.59825 z"
             sodipodi:nodetypes="ssscs" />
          <path
             id="path1343"
             style="fill:#000000;fill-opacity:1;stroke:#000000;stroke-width:2.8;stroke-linecap:round;stroke-miterlimit:4;stroke-dasharray:none"
             d="m 372.88342,488.62309 c 24.63093,0 44.59824,19.96731 44.59824,44.59824 0,24.63093 -19.96731,44.59824 -44.59824,44.59824 -24.63093,0 -40.4973,-28.21791 -70.19137,-44.59824 28.53103,-15.97107 45.56044,-44.59824 70.19137,-44.59824 z"
             sodipodi:nodetypes="ssscs" />
          <path
             id="path1345"
             style="fill:#000000;fill-opacity:1;stroke:#000000;stroke-width:2.8;stroke-linecap:round;stroke-miterlimit:4;stroke-dasharray:none"
             d="m 372.88342,302.04386 c 24.63093,0 44.59824,19.96732 44.59824,44.59825 0,24.63092 -19.96731,44.59824 -44.59824,44.59824 -24.63094,0 -40.49732,-28.21792 -70.19137,-44.59824 28.53101,-15.97108 45.56043,-44.59825 70.19137,-44.59825 z"
             sodipodi:nodetypes="ssscs" />
          <path
             id="path1347"
             style="fill:#000000;fill-opacity:1;stroke:#000000;stroke-width:2.8;stroke-linecap:round;stroke-miterlimit:4;stroke-dasharray:none"
             d="m 372.88342,115.46459 c 24.63093,0 44.59824,19.96732 44.59824,44.59825 0,24.63092 -19.96731,44.59824 -44.59824,44.59824 -24.63094,0 -40.49732,-28.21792 -70.19137,-44.59824 28.53101,-15.97108 45.56043,-44.59825 70.19137,-44.59825 z"
             sodipodi:nodetypes="ssscs" />
        </g>
        <g
           id="g1361"
           transform="matrix(0.73973342,0,0,0.73973342,2897.3003,-33.251499)">
          <path
             id="path1351"
             style="fill:#000000;fill-opacity:1;stroke:#000000;stroke-width:2.8;stroke-linecap:round;stroke-miterlimit:4;stroke-dasharray:none"
             d="m 118.53766,19.789238 c 24.63093,0 44.59824,19.96731 44.59824,44.59824 0,24.63093 -19.96731,44.598242 -44.59824,44.598242 -24.630932,0 -40.497312,-28.217912 -70.191372,-44.598242 28.53102,-15.97107 45.56044,-44.59824 70.191372,-44.59824 z"
             sodipodi:nodetypes="ssscs" />
          <path
             id="path1353"
             style="fill:#000000;fill-opacity:1;stroke:#000000;stroke-width:2.8;stroke-linecap:round;stroke-miterlimit:4;stroke-dasharray:none"
             d="m 118.53766,766.10625 c 24.63093,0 44.59824,19.96732 44.59824,44.59824 0,24.63093 -19.96731,44.59824 -44.59824,44.59824 -24.630931,10e-6 -40.497301,-28.21791 -70.191371,-44.59824 28.53103,-15.97107 45.56044,-44.59824 70.191371,-44.59824 z"
             sodipodi:nodetypes="ssscs" />
          <path
             id="path1355"
             style="fill:#000000;fill-opacity:1;stroke:#000000;stroke-width:2.8;stroke-linecap:round;stroke-miterlimit:4;stroke-dasharray:none"
             d="m 118.53766,579.52693 c 24.63093,0 44.59824,19.96732 44.59824,44.59825 0,24.63092 -19.96731,44.59824 -44.59824,44.59824 -24.630932,0 -40.497312,-28.21792 -70.191372,-44.59824 28.53102,-15.97108 45.56044,-44.59825 70.191372,-44.59825 z"
             sodipodi:nodetypes="ssscs" />
          <path
             id="path1357"
             style="fill:#000000;fill-opacity:1;stroke:#000000;stroke-width:2.8;stroke-linecap:round;stroke-miterlimit:4;stroke-dasharray:none"
             d="m 118.53766,392.94774 c 24.63093,0 44.59824,19.96731 44.59824,44.59824 0,24.63093 -19.96731,44.59824 -44.59824,44.59824 -24.630931,0 -40.497301,-28.21791 -70.191371,-44.59824 28.53103,-15.97107 45.56044,-44.59824 70.191371,-44.59824 z"
             sodipodi:nodetypes="ssscs" />
          <path
             id="path1359"
             style="fill:#000000;fill-opacity:1;stroke:#000000;stroke-width:2.8;stroke-linecap:round;stroke-miterlimit:4;stroke-dasharray:none"
             d="m 118.53766,206.36848 c 24.63093,0 44.59824,19.96732 44.59824,44.59825 0,24.63092 -19.96731,44.59824 -44.59824,44.59824 -24.630932,0 -40.497312,-28.21792 -70.191372,-44.59824 28.53102,-15.97108 45.56044,-44.59825 70.191372,-44.59825 z"
             sodipodi:nodetypes="ssscs" />
        </g>
        <g
           id="g1371"
           transform="matrix(0.73973342,0,0,0.73973342,2967.8971,-35.016303)">
          <path
             id="path1363"
             style="fill:#000000;fill-opacity:1;stroke:#000000;stroke-width:2.8;stroke-linecap:round;stroke-miterlimit:4;stroke-dasharray:none"
             d="m 372.88342,675.20234 c 24.63093,0 44.59824,19.96732 44.59824,44.59825 0,24.63092 -19.96731,44.59824 -44.59824,44.59824 -24.63095,0 -40.49732,-28.21792 -70.19137,-44.59824 28.53101,-15.97108 45.56042,-44.59825 70.19137,-44.59825 z"
             sodipodi:nodetypes="ssscs" />
          <path
             id="path1365"
             style="fill:#000000;fill-opacity:1;stroke:#000000;stroke-width:2.8;stroke-linecap:round;stroke-miterlimit:4;stroke-dasharray:none"
             d="m 372.88342,488.62309 c 24.63093,0 44.59824,19.96731 44.59824,44.59824 0,24.63093 -19.96731,44.59824 -44.59824,44.59824 -24.63093,0 -40.4973,-28.21791 -70.19137,-44.59824 28.53103,-15.97107 45.56044,-44.59824 70.19137,-44.59824 z"
             sodipodi:nodetypes="ssscs" />
          <path
             id="path1367"
             style="fill:#000000;fill-opacity:1;stroke:#000000;stroke-width:2.8;stroke-linecap:round;stroke-miterlimit:4;stroke-dasharray:none"
             d="m 372.88342,302.04386 c 24.63093,0 44.59824,19.96732 44.59824,44.59825 0,24.63092 -19.96731,44.59824 -44.59824,44.59824 -24.63094,0 -40.49732,-28.21792 -70.19137,-44.59824 28.53101,-15.97108 45.56043,-44.59825 70.19137,-44.59825 z"
             sodipodi:nodetypes="ssscs" />
          <path
             id="path1369"
             style="fill:#000000;fill-opacity:1;stroke:#000000;stroke-width:2.8;stroke-linecap:round;stroke-miterlimit:4;stroke-dasharray:none"
             d="m 372.88342,115.46459 c 24.63093,0 44.59824,19.96732 44.59824,44.59825 0,24.63092 -19.96731,44.59824 -44.59824,44.59824 -24.63094,0 -40.49732,-28.21792 -70.19137,-44.59824 28.53101,-15.97108 45.56043,-44.59825 70.19137,-44.59825 z"
             sodipodi:nodetypes="ssscs" />
        </g>
        <g
           id="g1383"
           transform="matrix(0.73973342,0,0,0.73973342,2379.8108,-33.251499)">
          <path
             id="path1373"
             style="fill:#000000;fill-opacity:1;stroke:#000000;stroke-width:2.8;stroke-linecap:round;stroke-miterlimit:4;stroke-dasharray:none"
             d="m 118.53766,19.789238 c 24.63093,0 44.59824,19.96731 44.59824,44.59824 0,24.63093 -19.96731,44.598242 -44.59824,44.598242 -24.630932,0 -40.497312,-28.217912 -70.191372,-44.598242 28.53102,-15.97107 45.56044,-44.59824 70.191372,-44.59824 z"
             sodipodi:nodetypes="ssscs" />
          <path
             id="path1375"
             style="fill:#000000;fill-opacity:1;stroke:#000000;stroke-width:2.8;stroke-linecap:round;stroke-miterlimit:4;stroke-dasharray:none"
             d="m 118.53766,766.10625 c 24.63093,0 44.59824,19.96732 44.59824,44.59824 0,24.63093 -19.96731,44.59824 -44.59824,44.59824 -24.630931,10e-6 -40.497301,-28.21791 -70.191371,-44.59824 28.53103,-15.97107 45.56044,-44.59824 70.191371,-44.59824 z"
             sodipodi:nodetypes="ssscs" />
          <path
             id="path1377"
             style="fill:#000000;fill-opacity:1;stroke:#000000;stroke-width:2.8;stroke-linecap:round;stroke-miterlimit:4;stroke-dasharray:none"
             d="m 118.53766,579.52693 c 24.63093,0 44.59824,19.96732 44.59824,44.59825 0,24.63092 -19.96731,44.59824 -44.59824,44.59824 -24.630932,0 -40.497312,-28.21792 -70.191372,-44.59824 28.53102,-15.97108 45.56044,-44.59825 70.191372,-44.59825 z"
             sodipodi:nodetypes="ssscs" />
          <path
             id="path1379"
             style="fill:#000000;fill-opacity:1;stroke:#000000;stroke-width:2.8;stroke-linecap:round;stroke-miterlimit:4;stroke-dasharray:none"
             d="m 118.53766,392.94774 c 24.63093,0 44.59824,19.96731 44.59824,44.59824 0,24.63093 -19.96731,44.59824 -44.59824,44.59824 -24.630931,0 -40.497301,-28.21791 -70.191371,-44.59824 28.53103,-15.97107 45.56044,-44.59824 70.191371,-44.59824 z"
             sodipodi:nodetypes="ssscs" />
          <path
             id="path1381"
             style="fill:#000000;fill-opacity:1;stroke:#000000;stroke-width:2.8;stroke-linecap:round;stroke-miterlimit:4;stroke-dasharray:none"
             d="m 118.53766,206.36848 c 24.63093,0 44.59824,19.96732 44.59824,44.59825 0,24.63092 -19.96731,44.59824 -44.59824,44.59824 -24.630932,0 -40.497312,-28.21792 -70.191372,-44.59824 28.53102,-15.97108 45.56044,-44.59825 70.191372,-44.59825 z"
             sodipodi:nodetypes="ssscs" />
        </g>
        <g
           id="g1393"
           transform="matrix(0.73973342,0,0,0.73973342,2450.4074,-35.016303)">
          <path
             id="path1385"
             style="fill:#000000;fill-opacity:1;stroke:#000000;stroke-width:2.8;stroke-linecap:round;stroke-miterlimit:4;stroke-dasharray:none"
             d="m 372.88342,675.20234 c 24.63093,0 44.59824,19.96732 44.59824,44.59825 0,24.63092 -19.96731,44.59824 -44.59824,44.59824 -24.63095,0 -40.49732,-28.21792 -70.19137,-44.59824 28.53101,-15.97108 45.56042,-44.59825 70.19137,-44.59825 z"
             sodipodi:nodetypes="ssscs" />
          <path
             id="path1387"
             style="fill:#000000;fill-opacity:1;stroke:#000000;stroke-width:2.8;stroke-linecap:round;stroke-miterlimit:4;stroke-dasharray:none"
             d="m 372.88342,488.62309 c 24.63093,0 44.59824,19.96731 44.59824,44.59824 0,24.63093 -19.96731,44.59824 -44.59824,44.59824 -24.63093,0 -40.4973,-28.21791 -70.19137,-44.59824 28.53103,-15.97107 45.56044,-44.59824 70.19137,-44.59824 z"
             sodipodi:nodetypes="ssscs" />
          <path
             id="path1389"
             style="fill:#000000;fill-opacity:1;stroke:#000000;stroke-width:2.8;stroke-linecap:round;stroke-miterlimit:4;stroke-dasharray:none"
             d="m 372.88342,302.04386 c 24.63093,0 44.59824,19.96732 44.59824,44.59825 0,24.63092 -19.96731,44.59824 -44.59824,44.59824 -24.63094,0 -40.49732,-28.21792 -70.19137,-44.59824 28.53101,-15.97108 45.56043,-44.59825 70.19137,-44.59825 z"
             sodipodi:nodetypes="ssscs" />
          <path
             id="path1391"
             style="fill:#000000;fill-opacity:1;stroke:#000000;stroke-width:2.8;stroke-linecap:round;stroke-miterlimit:4;stroke-dasharray:none"
             d="m 372.88342,115.46459 c 24.63093,0 44.59824,19.96732 44.59824,44.59825 0,24.63092 -19.96731,44.59824 -44.59824,44.59824 -24.63094,0 -40.49732,-28.21792 -70.19137,-44.59824 28.53101,-15.97108 45.56043,-44.59825 70.19137,-44.59825 z"
             sodipodi:nodetypes="ssscs" />
        </g>
        <g
           id="g1405"
           transform="matrix(0.73973342,0,0,0.73973342,1862.3206,-33.251499)">
          <path
             id="path1395"
             style="fill:#000000;fill-opacity:1;stroke:#000000;stroke-width:2.8;stroke-linecap:round;stroke-miterlimit:4;stroke-dasharray:none"
             d="m 118.53766,19.789238 c 24.63093,0 44.59824,19.96731 44.59824,44.59824 0,24.63093 -19.96731,44.598242 -44.59824,44.598242 -24.630932,0 -40.497312,-28.217912 -70.191372,-44.598242 28.53102,-15.97107 45.56044,-44.59824 70.191372,-44.59824 z"
             sodipodi:nodetypes="ssscs" />
          <path
             id="path1397"
             style="fill:#000000;fill-opacity:1;stroke:#000000;stroke-width:2.8;stroke-linecap:round;stroke-miterlimit:4;stroke-dasharray:none"
             d="m 118.53766,766.10625 c 24.63093,0 44.59824,19.96732 44.59824,44.59824 0,24.63093 -19.96731,44.59824 -44.59824,44.59824 -24.630931,10e-6 -40.497301,-28.21791 -70.191371,-44.59824 28.53103,-15.97107 45.56044,-44.59824 70.191371,-44.59824 z"
             sodipodi:nodetypes="ssscs" />
          <path
             id="path1399"
             style="fill:#000000;fill-opacity:1;stroke:#000000;stroke-width:2.8;stroke-linecap:round;stroke-miterlimit:4;stroke-dasharray:none"
             d="m 118.53766,579.52693 c 24.63093,0 44.59824,19.96732 44.59824,44.59825 0,24.63092 -19.96731,44.59824 -44.59824,44.59824 -24.630932,0 -40.497312,-28.21792 -70.191372,-44.59824 28.53102,-15.97108 45.56044,-44.59825 70.191372,-44.59825 z"
             sodipodi:nodetypes="ssscs" />
          <path
             id="path1401"
             style="fill:#000000;fill-opacity:1;stroke:#000000;stroke-width:2.8;stroke-linecap:round;stroke-miterlimit:4;stroke-dasharray:none"
             d="m 118.53766,392.94774 c 24.63093,0 44.59824,19.96731 44.59824,44.59824 0,24.63093 -19.96731,44.59824 -44.59824,44.59824 -24.630931,0 -40.497301,-28.21791 -70.191371,-44.59824 28.53103,-15.97107 45.56044,-44.59824 70.191371,-44.59824 z"
             sodipodi:nodetypes="ssscs" />
          <path
             id="path1403"
             style="fill:#000000;fill-opacity:1;stroke:#000000;stroke-width:2.8;stroke-linecap:round;stroke-miterlimit:4;stroke-dasharray:none"
             d="m 118.53766,206.36848 c 24.63093,0 44.59824,19.96732 44.59824,44.59825 0,24.63092 -19.96731,44.59824 -44.59824,44.59824 -24.630932,0 -40.497312,-28.21792 -70.191372,-44.59824 28.53102,-15.97108 45.56044,-44.59825 70.191372,-44.59825 z"
             sodipodi:nodetypes="ssscs" />
        </g>
        <g
           id="g1415"
           transform="matrix(0.73973342,0,0,0.73973342,1932.9176,-35.016303)">
          <path
             id="path1407"
             style="fill:#000000;fill-opacity:1;stroke:#000000;stroke-width:2.8;stroke-linecap:round;stroke-miterlimit:4;stroke-dasharray:none"
             d="m 372.88342,675.20234 c 24.63093,0 44.59824,19.96732 44.59824,44.59825 0,24.63092 -19.96731,44.59824 -44.59824,44.59824 -24.63095,0 -40.49732,-28.21792 -70.19137,-44.59824 28.53101,-15.97108 45.56042,-44.59825 70.19137,-44.59825 z"
             sodipodi:nodetypes="ssscs" />
          <path
             id="path1409"
             style="fill:#000000;fill-opacity:1;stroke:#000000;stroke-width:2.8;stroke-linecap:round;stroke-miterlimit:4;stroke-dasharray:none"
             d="m 372.88342,488.62309 c 24.63093,0 44.59824,19.96731 44.59824,44.59824 0,24.63093 -19.96731,44.59824 -44.59824,44.59824 -24.63093,0 -40.4973,-28.21791 -70.19137,-44.59824 28.53103,-15.97107 45.56044,-44.59824 70.19137,-44.59824 z"
             sodipodi:nodetypes="ssscs" />
          <path
             id="path1411"
             style="fill:#000000;fill-opacity:1;stroke:#000000;stroke-width:2.8;stroke-linecap:round;stroke-miterlimit:4;stroke-dasharray:none"
             d="m 372.88342,302.04386 c 24.63093,0 44.59824,19.96732 44.59824,44.59825 0,24.63092 -19.96731,44.59824 -44.59824,44.59824 -24.63094,0 -40.49732,-28.21792 -70.19137,-44.59824 28.53101,-15.97108 45.56043,-44.59825 70.19137,-44.59825 z"
             sodipodi:nodetypes="ssscs" />
          <path
             id="path1413"
             style="fill:#000000;fill-opacity:1;stroke:#000000;stroke-width:2.8;stroke-linecap:round;stroke-miterlimit:4;stroke-dasharray:none"
             d="m 372.88342,115.46459 c 24.63093,0 44.59824,19.96732 44.59824,44.59825 0,24.63092 -19.96731,44.59824 -44.59824,44.59824 -24.63094,0 -40.49732,-28.21792 -70.19137,-44.59824 28.53101,-15.97108 45.56043,-44.59825 70.19137,-44.59825 z"
             sodipodi:nodetypes="ssscs" />
        </g>
      </g>
      <path
         style="fill:none;stroke:#000000;stroke-width:15;stroke-linecap:butt;stroke-linejoin:miter;stroke-miterlimit:4;stroke-dasharray:none;stroke-opacity:1"
         d="M 4221.0341,-2206.1762 H 8177.1852"
         id="path1419" />
      <path
         style="fill:none;stroke:#000000;stroke-width:15;stroke-linecap:butt;stroke-linejoin:miter;stroke-miterlimit:4;stroke-dasharray:none;stroke-opacity:1"
         d="m -5891.5766,-2206.1762 h 2638.092"
         id="path1421" />
    </g>
    <g
       id="g1771"
       transform="matrix(0.02825606,0,0,0.02825606,-5725.1039,-2569.7981)">
      <g
         id="g1731"
         transform="matrix(0.73973342,0,0,0.73973342,-1741.8429,-33.251482)">
        <path
           id="path1721"
           style="fill:#000000;fill-opacity:1;stroke:#000000;stroke-width:2.8;stroke-linecap:round;stroke-miterlimit:4;stroke-dasharray:none"
           d="m 118.53766,19.789238 c 24.63093,0 44.59824,19.96731 44.59824,44.59824 0,24.63093 -19.96731,44.598242 -44.59824,44.598242 -24.630932,0 -40.497312,-28.217912 -70.191372,-44.598242 28.53102,-15.97107 45.56044,-44.59824 70.191372,-44.59824 z"
           sodipodi:nodetypes="ssscs" />
        <path
           id="path1723"
           style="fill:#000000;fill-opacity:1;stroke:#000000;stroke-width:2.8;stroke-linecap:round;stroke-miterlimit:4;stroke-dasharray:none"
           d="m 118.53766,766.10625 c 24.63093,0 44.59824,19.96732 44.59824,44.59824 0,24.63093 -19.96731,44.59824 -44.59824,44.59824 -24.630931,10e-6 -40.497301,-28.21791 -70.191371,-44.59824 28.53103,-15.97107 45.56044,-44.59824 70.191371,-44.59824 z"
           sodipodi:nodetypes="ssscs" />
        <path
           id="path1725"
           style="fill:#000000;fill-opacity:1;stroke:#000000;stroke-width:2.8;stroke-linecap:round;stroke-miterlimit:4;stroke-dasharray:none"
           d="m 118.53766,579.52693 c 24.63093,0 44.59824,19.96732 44.59824,44.59825 0,24.63092 -19.96731,44.59824 -44.59824,44.59824 -24.630932,0 -40.497312,-28.21792 -70.191372,-44.59824 28.53102,-15.97108 45.56044,-44.59825 70.191372,-44.59825 z"
           sodipodi:nodetypes="ssscs" />
        <path
           id="path1727"
           style="fill:#000000;fill-opacity:1;stroke:#000000;stroke-width:2.8;stroke-linecap:round;stroke-miterlimit:4;stroke-dasharray:none"
           d="m 118.53766,392.94774 c 24.63093,0 44.59824,19.96731 44.59824,44.59824 0,24.63093 -19.96731,44.59824 -44.59824,44.59824 -24.630931,0 -40.497301,-28.21791 -70.191371,-44.59824 28.53103,-15.97107 45.56044,-44.59824 70.191371,-44.59824 z"
           sodipodi:nodetypes="ssscs" />
        <path
           id="path1729"
           style="fill:#000000;fill-opacity:1;stroke:#000000;stroke-width:2.8;stroke-linecap:round;stroke-miterlimit:4;stroke-dasharray:none"
           d="m 118.53766,206.36848 c 24.63093,0 44.59824,19.96732 44.59824,44.59825 0,24.63092 -19.96731,44.59824 -44.59824,44.59824 -24.630932,0 -40.497312,-28.21792 -70.191372,-44.59824 28.53102,-15.97108 45.56044,-44.59825 70.191372,-44.59825 z"
           sodipodi:nodetypes="ssscs" />
      </g>
      <g
         id="g1741"
         transform="matrix(0.73973342,0,0,0.73973342,-1671.246,-35.016286)">
        <path
           id="path1733"
           style="fill:#000000;fill-opacity:1;stroke:#000000;stroke-width:2.8;stroke-linecap:round;stroke-miterlimit:4;stroke-dasharray:none"
           d="m 372.88342,675.20234 c 24.63093,0 44.59824,19.96732 44.59824,44.59825 0,24.63092 -19.96731,44.59824 -44.59824,44.59824 -24.63095,0 -40.49732,-28.21792 -70.19137,-44.59824 28.53101,-15.97108 45.56042,-44.59825 70.19137,-44.59825 z"
           sodipodi:nodetypes="ssscs" />
        <path
           id="path1735"
           style="fill:#000000;fill-opacity:1;stroke:#000000;stroke-width:2.8;stroke-linecap:round;stroke-miterlimit:4;stroke-dasharray:none"
           d="m 372.88342,488.62309 c 24.63093,0 44.59824,19.96731 44.59824,44.59824 0,24.63093 -19.96731,44.59824 -44.59824,44.59824 -24.63093,0 -40.4973,-28.21791 -70.19137,-44.59824 28.53103,-15.97107 45.56044,-44.59824 70.19137,-44.59824 z"
           sodipodi:nodetypes="ssscs" />
        <path
           id="path1737"
           style="fill:#000000;fill-opacity:1;stroke:#000000;stroke-width:2.8;stroke-linecap:round;stroke-miterlimit:4;stroke-dasharray:none"
           d="m 372.88342,302.04386 c 24.63093,0 44.59824,19.96732 44.59824,44.59825 0,24.63092 -19.96731,44.59824 -44.59824,44.59824 -24.63094,0 -40.49732,-28.21792 -70.19137,-44.59824 28.53101,-15.97108 45.56043,-44.59825 70.19137,-44.59825 z"
           sodipodi:nodetypes="ssscs" />
        <path
           id="path1739"
           style="fill:#000000;fill-opacity:1;stroke:#000000;stroke-width:2.8;stroke-linecap:round;stroke-miterlimit:4;stroke-dasharray:none"
           d="m 372.88342,115.46459 c 24.63093,0 44.59824,19.96732 44.59824,44.59825 0,24.63092 -19.96731,44.59824 -44.59824,44.59824 -24.63094,0 -40.49732,-28.21792 -70.19137,-44.59824 28.53101,-15.97108 45.56043,-44.59825 70.19137,-44.59825 z"
           sodipodi:nodetypes="ssscs" />
      </g>
      <g
         id="g1753"
         transform="matrix(0.73973342,0,0,0.73973342,-2259.3329,-33.251482)">
        <path
           id="path1743"
           style="fill:#000000;fill-opacity:1;stroke:#000000;stroke-width:2.8;stroke-linecap:round;stroke-miterlimit:4;stroke-dasharray:none"
           d="m 118.53766,19.789238 c 24.63093,0 44.59824,19.96731 44.59824,44.59824 0,24.63093 -19.96731,44.598242 -44.59824,44.598242 -24.630932,0 -40.497312,-28.217912 -70.191372,-44.598242 28.53102,-15.97107 45.56044,-44.59824 70.191372,-44.59824 z"
           sodipodi:nodetypes="ssscs" />
        <path
           id="path1745"
           style="fill:#000000;fill-opacity:1;stroke:#000000;stroke-width:2.8;stroke-linecap:round;stroke-miterlimit:4;stroke-dasharray:none"
           d="m 118.53766,766.10625 c 24.63093,0 44.59824,19.96732 44.59824,44.59824 0,24.63093 -19.96731,44.59824 -44.59824,44.59824 -24.630931,10e-6 -40.497301,-28.21791 -70.191371,-44.59824 28.53103,-15.97107 45.56044,-44.59824 70.191371,-44.59824 z"
           sodipodi:nodetypes="ssscs" />
        <path
           id="path1747"
           style="fill:#000000;fill-opacity:1;stroke:#000000;stroke-width:2.8;stroke-linecap:round;stroke-miterlimit:4;stroke-dasharray:none"
           d="m 118.53766,579.52693 c 24.63093,0 44.59824,19.96732 44.59824,44.59825 0,24.63092 -19.96731,44.59824 -44.59824,44.59824 -24.630932,0 -40.497312,-28.21792 -70.191372,-44.59824 28.53102,-15.97108 45.56044,-44.59825 70.191372,-44.59825 z"
           sodipodi:nodetypes="ssscs" />
        <path
           id="path1749"
           style="fill:#000000;fill-opacity:1;stroke:#000000;stroke-width:2.8;stroke-linecap:round;stroke-miterlimit:4;stroke-dasharray:none"
           d="m 118.53766,392.94774 c 24.63093,0 44.59824,19.96731 44.59824,44.59824 0,24.63093 -19.96731,44.59824 -44.59824,44.59824 -24.630931,0 -40.497301,-28.21791 -70.191371,-44.59824 28.53103,-15.97107 45.56044,-44.59824 70.191371,-44.59824 z"
           sodipodi:nodetypes="ssscs" />
        <path
           id="path1751"
           style="fill:#000000;fill-opacity:1;stroke:#000000;stroke-width:2.8;stroke-linecap:round;stroke-miterlimit:4;stroke-dasharray:none"
           d="m 118.53766,206.36848 c 24.63093,0 44.59824,19.96732 44.59824,44.59825 0,24.63092 -19.96731,44.59824 -44.59824,44.59824 -24.630932,0 -40.497312,-28.21792 -70.191372,-44.59824 28.53102,-15.97108 45.56044,-44.59825 70.191372,-44.59825 z"
           sodipodi:nodetypes="ssscs" />
      </g>
      <g
         id="g1763"
         transform="matrix(0.73973342,0,0,0.73973342,-2188.736,-35.016286)">
        <path
           id="path1755"
           style="fill:#000000;fill-opacity:1;stroke:#000000;stroke-width:2.8;stroke-linecap:round;stroke-miterlimit:4;stroke-dasharray:none"
           d="m 372.88342,675.20234 c 24.63093,0 44.59824,19.96732 44.59824,44.59825 0,24.63092 -19.96731,44.59824 -44.59824,44.59824 -24.63095,0 -40.49732,-28.21792 -70.19137,-44.59824 28.53101,-15.97108 45.56042,-44.59825 70.19137,-44.59825 z"
           sodipodi:nodetypes="ssscs" />
        <path
           id="path1757"
           style="fill:#000000;fill-opacity:1;stroke:#000000;stroke-width:2.8;stroke-linecap:round;stroke-miterlimit:4;stroke-dasharray:none"
           d="m 372.88342,488.62309 c 24.63093,0 44.59824,19.96731 44.59824,44.59824 0,24.63093 -19.96731,44.59824 -44.59824,44.59824 -24.63093,0 -40.4973,-28.21791 -70.19137,-44.59824 28.53103,-15.97107 45.56044,-44.59824 70.19137,-44.59824 z"
           sodipodi:nodetypes="ssscs" />
        <path
           id="path1759"
           style="fill:#000000;fill-opacity:1;stroke:#000000;stroke-width:2.8;stroke-linecap:round;stroke-miterlimit:4;stroke-dasharray:none"
           d="m 372.88342,302.04386 c 24.63093,0 44.59824,19.96732 44.59824,44.59825 0,24.63092 -19.96731,44.59824 -44.59824,44.59824 -24.63094,0 -40.49732,-28.21792 -70.19137,-44.59824 28.53101,-15.97108 45.56043,-44.59825 70.19137,-44.59825 z"
           sodipodi:nodetypes="ssscs" />
        <path
           id="path1761"
           style="fill:#000000;fill-opacity:1;stroke:#000000;stroke-width:2.8;stroke-linecap:round;stroke-miterlimit:4;stroke-dasharray:none"
           d="m 372.88342,115.46459 c 24.63093,0 44.59824,19.96732 44.59824,44.59825 0,24.63092 -19.96731,44.59824 -44.59824,44.59824 -24.63094,0 -40.49732,-28.21792 -70.19137,-44.59824 28.53101,-15.97108 45.56043,-44.59825 70.19137,-44.59825 z"
           sodipodi:nodetypes="ssscs" />
      </g>
      <path
         id="path1765"
         style="fill:none;fill-opacity:1;stroke:#000000;stroke-width:35.014;stroke-linecap:round;stroke-miterlimit:4;stroke-dasharray:none"
         d="m -2768.6668,332.52227 c 0,34.10436 13.5479,66.81193 37.6633,90.92737 24.1154,24.11544 56.823,37.66335 90.9273,37.66335 0.3564,0 0.7128,-0.002 1.0691,-0.004 -0.4932,3.66739 -0.7405,7.36365 -0.7405,11.06405 0,22.02074 8.7477,43.13957 24.3187,58.71057 15.571,15.57101 36.6899,24.31871 58.7106,24.31871 22.0207,0 43.1395,-8.7477 58.7106,-24.31871 15.571,-15.57101 24.3187,-36.68983 24.3187,-58.71057 l 0.027,-381.091961 c 0,-17.358683 -6.8956,-34.006361 -19.1701,-46.280817 -12.2744,-12.274452 -28.9222,-19.170134 -46.2808,-19.170187 -15.6583,0 -30.7979,5.613661 -42.671,15.822149 -11.8731,10.208492 -19.6929,24.335314 -22.0404,39.816705 -5.1436,-0.787388 -10.3396,-1.182759 -15.543,-1.182759 -27.2435,0 -53.3712,10.822418 -72.6353,30.08653 -19.2641,19.26405 -30.0865,45.39173 -30.0865,72.63525 0,15.00628 3.2879,29.83032 9.6323,43.42941 -35.1656,23.94805 -56.2098,63.73965 -56.2098,106.28532 z"
         sodipodi:nodetypes="ssscssssccssscssscs" />
      <path
         style="fill:none;stroke:#000000;stroke-width:15;stroke-linecap:butt;stroke-linejoin:miter;stroke-miterlimit:4;stroke-dasharray:none;stroke-opacity:1"
         d="M 4221.0341,290.41556 H 8177.1852"
         id="path1767" />
      <path
         style="fill:none;stroke:#000000;stroke-width:15;stroke-linecap:butt;stroke-linejoin:miter;stroke-miterlimit:4;stroke-dasharray:none;stroke-opacity:1"
         d="m -5891.5766,290.41556 h 2638.092"
         id="path1769" />
    </g>
    <path
       id="path922"
       style="fill:#000000;fill-opacity:1;stroke:#000000;stroke-width:0.100077;stroke-linecap:round;stroke-miterlimit:4;stroke-dasharray:none"
       d="m -5618.7752,-2526.3124 c 0,0.8803 0.7136,1.594 1.594,1.594 0.8803,0 1.594,-0.7137 1.594,-1.594 0,-0.8803 -1.0086,-1.4474 -1.594,-2.5088 -0.5709,1.0197 -1.594,1.6285 -1.594,2.5088 z"
       sodipodi:nodetypes="ssscs" />
    <path
       id="path924"
       style="fill:#000000;fill-opacity:1;stroke:#000000;stroke-width:0.0481331;stroke-linecap:round;stroke-miterlimit:4;stroke-dasharray:none"
       d="m -5624.6815,-2526.3663 c 0,0.4235 0.3432,0.7667 0.7666,0.7667 0.4234,0 0.7667,-0.3432 0.7667,-0.7667 0,-0.4234 -0.4851,-0.6961 -0.7667,-1.2066 -0.2746,0.4905 -0.7666,0.7832 -0.7666,1.2066 z"
       sodipodi:nodetypes="ssscs" />
    <path
       id="path926"
       style="fill:#000000;fill-opacity:1;stroke:#000000;stroke-width:0.0481331;stroke-linecap:round;stroke-miterlimit:4;stroke-dasharray:none"
       d="m -5630.5619,-2526.3663 c 0,0.4235 0.3432,0.7667 0.7666,0.7667 0.4235,0 0.7667,-0.3432 0.7667,-0.7667 0,-0.4234 -0.485,-0.6961 -0.7667,-1.2066 -0.2745,0.4905 -0.7666,0.7832 -0.7666,1.2066 z"
       sodipodi:nodetypes="ssscs" />
    <path
       id="path928"
       style="fill:#000000;fill-opacity:1;stroke:#000000;stroke-width:0.0481331;stroke-linecap:round;stroke-miterlimit:4;stroke-dasharray:none"
       d="m -5636.4423,-2526.3663 c 0,0.4235 0.3433,0.7667 0.7667,0.7667 0.4234,0 0.7667,-0.3432 0.7667,-0.7667 0,-0.4234 -0.4851,-0.6961 -0.7667,-1.2066 -0.2745,0.4905 -0.7667,0.7832 -0.7667,1.2066 z"
       sodipodi:nodetypes="ssscs" />
    <path
       id="circle1028"
       style="fill:none;fill-opacity:1;stroke:#000000;stroke-width:0.81368;stroke-linecap:round;stroke-miterlimit:4;stroke-dasharray:none"
       d="m -5603.6998,-2531.1237 c 0.7926,0 1.5527,0.3149 2.1131,0.8753 0.5604,0.5603 0.8752,1.3204 0.8752,2.113 0,0.01 0,0.017 0,0.025 0.085,-0.012 0.1712,-0.017 0.2571,-0.017 0.5118,0 1.0026,0.2032 1.3644,0.5651 0.3619,0.3619 0.5652,0.8527 0.5652,1.3644 0,0.5117 -0.2033,1.0025 -0.5652,1.3643 -0.3618,0.3619 -0.8526,0.5652 -1.3644,0.5652 h -8.856 c -0.4034,0 -0.7903,-0.1603 -1.0755,-0.4456 -0.2852,-0.2851 -0.4455,-0.672 -0.4455,-1.0754 0,-0.3639 0.1304,-0.7157 0.3677,-0.9916 0.2372,-0.276 0.5655,-0.4577 0.9252,-0.5122 -0.018,-0.1196 -0.028,-0.2403 -0.028,-0.3612 0,-0.6331 0.2515,-1.2403 0.6992,-1.688 0.4476,-0.4476 1.0548,-0.6991 1.6879,-0.6991 0.3487,0 0.6932,0.076 1.0093,0.2238 0.5565,-0.8172 1.4811,-1.3063 2.4699,-1.3063 z"
       sodipodi:nodetypes="ssscssssccssscssscs" />
    <path
       style="fill:none;stroke:#000000;stroke-width:0.452097;stroke-linecap:butt;stroke-linejoin:miter;stroke-miterlimit:4;stroke-dasharray:none;stroke-opacity:1"
       d="m -5640.7652,-2526.5708 h -250.8114"
       id="path1150"
       sodipodi:nodetypes="cc" />
    <path
       style="fill:none;stroke:#000000;stroke-width:0.452097;stroke-linecap:butt;stroke-linejoin:miter;stroke-miterlimit:4;stroke-dasharray:none;stroke-opacity:1"
       d="m -5494.049,-2526.5708 h -74.542"
       id="path1152" />
    <path
       id="path1802"
       style="fill:#000000;fill-opacity:1;stroke:#000000;stroke-width:0.100077;stroke-linecap:round;stroke-miterlimit:4;stroke-dasharray:none"
       d="m -5593.7691,-2526.3124 c 0,0.8803 0.7136,1.594 1.594,1.594 0.8804,0 1.5941,-0.7137 1.5941,-1.594 0,-0.8803 -1.0086,-1.4474 -1.5941,-2.5088 -0.5708,1.0197 -1.594,1.6285 -1.594,2.5088 z"
       sodipodi:nodetypes="ssscs" />
    <path
       id="path1804"
       style="fill:#000000;fill-opacity:1;stroke:#000000;stroke-width:0.0481331;stroke-linecap:round;stroke-miterlimit:4;stroke-dasharray:none"
       d="m -5574.4473,-2526.3663 c 0,0.4235 0.3432,0.7667 0.7666,0.7667 0.4234,0 0.7667,-0.3432 0.7667,-0.7667 0,-0.4234 -0.4851,-0.6961 -0.7667,-1.2066 -0.2745,0.4905 -0.7666,0.7832 -0.7666,1.2066 z"
       sodipodi:nodetypes="ssscs" />
    <path
       id="path1806"
       style="fill:#000000;fill-opacity:1;stroke:#000000;stroke-width:0.0481331;stroke-linecap:round;stroke-miterlimit:4;stroke-dasharray:none"
       d="m -5580.3277,-2526.3663 c 0,0.4235 0.3432,0.7667 0.7666,0.7667 0.4234,0 0.7668,-0.3432 0.7668,-0.7667 0,-0.4234 -0.4851,-0.6961 -0.7668,-1.2066 -0.2745,0.4905 -0.7666,0.7832 -0.7666,1.2066 z"
       sodipodi:nodetypes="ssscs" />
    <path
       id="path1808"
       style="fill:#000000;fill-opacity:1;stroke:#000000;stroke-width:0.0481331;stroke-linecap:round;stroke-miterlimit:4;stroke-dasharray:none"
       d="m -5586.208,-2526.3663 c 0,0.4235 0.3432,0.7667 0.7666,0.7667 0.4234,0 0.7667,-0.3432 0.7667,-0.7667 0,-0.4234 -0.4851,-0.6961 -0.7667,-1.2066 -0.2745,0.4905 -0.7666,0.7832 -0.7666,1.2066 z"
       sodipodi:nodetypes="ssscs" />
  </g>
</svg>
